Week 2 Assignment - Data Cleaning
…
snowcover_data_fixed <- snowcover_data %>%
    mutate(snow_days = ifelse(Snow_cover > 10, 1, 0), Date2 = as_date(Date))

Cleaning the data:

# make sure the dates reflect the latest cleaning from
# class
snowcover_data_fixed <- snowcover_data_fixed %>%
    mutate(Date2 = ifelse(is.na(Date2), dmy("08/06/06"), Date2))

# view
snowcover_data_fixed

# A tibble: 42,830 × 13
   Site   Year Date      Plot  Location Snow_cover Water_cover Land_cover
   <chr> <dbl> <chr>     <chr> <chr>    <chr>      <chr>       <chr>     
 1 barr   2011 29-May-11 brw1  b10      90         0           10        
 2 barr   2011 29-May-11 brw1  b12      100        0           0         
 3 barr   2011 29-May-11 brw1  b2       90         0           10        
 4 barr   2011 29-May-11 brw1  b4       100        0           0         
 5 barr   2011 29-May-11 brw1  b6       95         0           5         
 6 barr   2011 29-May-11 brw1  b8       95         0           5         
 7 barr   2011 29-May-11 brw1  d10      95         0           5         
 8 barr   2011 29-May-11 brw1  d12      90         0           10        
 9 barr   2011 29-May-11 brw1  d2       95         0           5         
10 barr   2011 29-May-11 brw1  d4       95         0           5         
# ℹ 42,820 more rows
# ℹ 5 more variables: Total_cover <chr>, Observer <chr>, Notes <chr>,
#   snow_days <dbl>, Date2 <dbl>
…
